{
  "// SEE": "Math in `env.vars.disabled.js`",
  "environmentVariables": {
    "--phi": "1.618",

    "--vw--narrow":        "300px",
    "--vw--narrow-medium": "485px",
    "--vw--medium":        "670px",
    "--vw--medium-wide":   "1085px",
    "--vw--wide":          "1500px",

    "--space--xxx-small": "0.25rem",
    "--space--xx-small": "0.4rem",
    "--space--x-small": "0.6rem",
    "--space--small": "1.0rem",
    "--space--normal": "1.8rem",
    "--space--large": "3.0rem",
    "--space--x-large": "4.8rem",
    "--space--xx-large": "7.8rem",
    "--space--xxx-large": "12.5rem"
  }
}